…
knitr::opts_chunk$set(
  fig.path = '../plots/')
#Creates the dataframe 'median_windspeed'
median_windspeed<- weather %>%
  #Only these three columns are needed for analysis
  select(wind_speed, wind_dir, origin) %>%
  group_by(origin, wind_dir) %>%
  #outliers of wind_speed are removed using the outlier() function from the outliers package
  filter(wind_speed != c(outlier(wind_speed)), is.na(wind_dir) == FALSE) %>%
  #median wind speed is calculated for each airport and wind direction
  summarise(median_wind_speed = median(wind_speed, na.rm = TRUE))
print(median_windspeed)
```

    ## Source: local data frame [108 x 3]
    ## Groups: origin [?]
    ## 
    ##    origin wind_dir median_wind_speed
    ##     <chr>    <dbl>             <dbl>
    ## 1     EWR       10           9.20624
    ## 2     EWR       20           9.20624
    ## 3     EWR       30           9.20624
    ## 4     EWR       40           9.78163
    ## 5     EWR       50           8.05546
    ## 6     EWR       60           8.05546
    ## 7     EWR       70           6.90468
    ## 8     EWR       80           6.90468
    ## 9     EWR       90           5.75390
    ## 10    EWR      100           6.90468
    ## # ... with 98 more rows
…
